{"photos":{"page":1,"pages":4168,"perpage":100,"total":"416709","photo":[{"id":"32011675501","owner":"136944338@N05","secret":"9c9ef7045f","server":"5696","farm":6,"title":"Miracle Niki - Change clothing CODE RPG - Android & iOS apps - Free","ispublic":1,"isfriend":0,"isfamily":0},{"id":"31318948623","owner":"96227749@N06","secret":"e7cac8dc3c","server":"624","farm":1,"title":"New photo added to \"\u041f\u043e\u043b\u044c\u0448\u0430\"","ispublic":1,"isfriend":0,"isfamily":0},{"id":"31318948073","owner":"96227749@N06","secret":"04cfdc6661","server":"5617","farm":6,"title":"New photo added to \"\u041f\u043e\u043b\u044c\u0448\u0430\"May 03, 2013 at 03:19PM","ispublic":1,"isfriend":0,"isfamily":0},{"id":"31318947043","owner":"96227749@N06","secret":"15477b7470","server":"5610","farm":6,"title":"New photo added to \"\u041f\u043e\u043b\u044c\u0448\u0430\"May 03, 2013 at 03:19PM","ispublic":1,"isfriend":0,"isfamily":0},{"id":"31980372302","owner":"96227749@N06","secret":"418850cfde","server":"595","farm":1,"title":"New photo added to \"\u041f\u043e\u043b\u044c\u0448\u0430\"","ispublic":1,"isfriend":0,"isfamily":0},{"id":"32128967415","owner":"96227749@N06","secret":"3949ebae56","server":"5509","farm":6,"title":"New photo added to \"VSCO Cam\"","ispublic":1,"isfriend":0,"isfamily":0},{"id":"31318933693","owner":"96227749@N06","secret":"541da69f0f","server":"677","farm":1,"title":"New photo added to \"Instagram\"April 12, 2015 at 10:44PM","ispublic":1,"isfriend":0,"isfamily":0},{"id":"31287798624","owner":"96227749@N06","secret":"a194b21ebb","server":"443","farm":1,"title":"New photo added to \"\u041f\u043e\u043b\u044c\u0448\u0430\"","ispublic":1,"isfriend":0,"isfamily":0},{"id":"32010325751","owner":"96227749@N06","secret":"8c8c1d67c9","server":"569","farm":1,"title":"New photo added to \"\u041f\u043e\u043b\u044c\u0448\u0430\"","ispublic":1,"isfriend":0,"isfamily":0},{"id":"31318925413","owner":"96227749@N06","secret":"4af27fe294","server":"602","farm":1,"title":"New photo added to \"\u041f\u043e\u043b\u044c\u0448\u0430\"","ispublic":1,"isfriend":0,"isfamily":0},{"id":"32090231626","owner":"96227749@N06","secret":"7d7161fcb2","server":"5539","farm":6,"title":"New photo added to \"Instagram\"April 12, 2015 at 11:00PM","ispublic":1,"isfriend":0,"isfamily":0},{"id":"31980360132","owner":"96227749@N06","secret":"952e76aa79","server":"576","farm":1,"title":"New photo added to \"Instagram\"","ispublic":1,"isfriend":0,"isfamily":0},{"id":"32090230796","owner":"96227749@N06","secret":"4bc33e9dc6","server":"511","farm":1,"title":"New photo added to \"\u041f\u043e\u043b\u044c\u0448\u0430\"May 03, 2013 at 03:20PM","ispublic":1,"isfriend":0,"isfamily":0},{"id":"31318918503","owner":"96227749@N06","secret":"6ce577b20d","server":"388","farm":1,"title":"New photo added to \"\u041f\u043e\u043b\u044c\u0448\u0430\"May 03, 2013 at 03:27PM","ispublic":1,"isfriend":0,"isfamily":0},{"id":"32090225976","owner":"96227749@N06","secret":"4714de9dbc","server":"681","farm":1,"title":"New photo added to \"\u041f\u043e\u043b\u044c\u0448\u0430\"May 05, 2013 at 04:40PM","ispublic":1,"isfriend":0,"isfamily":0},{"id":"32090217856","owner":"96227749@N06","secret":"bb60b79ea7","server":"657","farm":1,"title":"New photo added to \"VSCO Cam\"","ispublic":1,"isfriend":0,"isfamily":0},{"id":"31286530864","owner":"53031655@N00","secret":"ff1a516394","server":"255","farm":1,"title":"1","ispublic":1,"isfriend":0,"isfamily":0},{"id":"31286476754","owner":"53031655@N00","secret":"5753820000","server":"316","farm":1,"title":"1","ispublic":1,"isfriend":0,"isfamily":0},{"id":"31285883014","owner":"62901955@N08","secret":"f2a8224713","server":"497","farm":1,"title":"New photo added to \"Camera Roll\"","ispublic":1,"isfriend":0,"isfamily":0},{"id":"31978451932","owner":"62901955@N08","secret":"a1e62d3b28","server":"401","farm":1,"title":"New photo added to \"All Photos\"","ispublic":1,"isfriend":0,"isfamily":0},{"id":"32127096335","owner":"62901955@N08","secret":"018febace1","server":"360","farm":1,"title":"New photo added to \"All Photos\"","ispublic":1,"isfriend":0,"isfamily":0},{"id":"31317120163","owner":"62901955@N08","secret":"62c5a6e880","server":"275","farm":1,"title":"New photo added to \"All Photos\"","ispublic":1,"isfriend":0,"isfamily":0},{"id":"31976535202","owner":"101743283@N08","secret":"e15688bd6f","server":"310","farm":1,"title":"Mystery","ispublic":1,"isfriend":0,"isfamily":0},{"id":"31282762924","owner":"143903597@N06","secret":"df74baa014","server":"626","farm":1,"title":"Best Cydia Tweaks for Spotify \u2013 iOS 10 [iPhone,iPad]","ispublic":1,"isfriend":0,"isfamily":0},{"id":"32084553326","owner":"145432609@N08","secret":"a2e0622487","server":"613","farm":1,"title":"iOS 10.3 tiyatro modu ne i\u015fe yar\u0131yor?","ispublic":1,"isfriend":0,"isfamily":0},{"id":"32083245946","owner":"58983979@N06","secret":"ae13901d32","server":"5764","farm":6,"title":"New photo added to \"Camera Roll\"","ispublic":1,"isfriend":0,"isfamily":0},{"id":"31281079034","owner":"58983979@N06","secret":"9d3c6d886f","server":"626","farm":1,"title":"New photo added to \"Camera Roll\"","ispublic":1,"isfriend":0,"isfamily":0},{"id":"31747048440","owner":"58983979@N06","secret":"4fe113c9e2","server":"289","farm":1,"title":"New photo added to \"Camera Roll\"","ispublic":1,"isfriend":0,"isfamily":0},{"id":"32003869481","owner":"58983979@N06","secret":"b03604e641","server":"5617","farm":6,"title":"New photo added to \"Camera Roll\"","ispublic":1,"isfriend":0,"isfamily":0},{"id":"31973589192","owner":"58983979@N06","secret":"7e574d0e20","server":"5588","farm":6,"title":"New photo added to \"Camera Roll\"","ispublic":1,"isfriend":0,"isfamily":0},{"id":"31747040050","owner":"58983979@N06","secret":"cb4bafb9a0","server":"5476","farm":6,"title":"New photo added to \"Camera Roll\"","ispublic":1,"isfriend":0,"isfamily":0},{"id":"31973585352","owner":"58983979@N06","secret":"ac57a3466b","server":"614","farm":1,"title":"New photo added to \"Camera Roll\"","ispublic":1,"isfriend":0,"isfamily":0},{"id":"32083234216","owner":"58983979@N06","secret":"96c3ab6e0d","server":"431","farm":1,"title":"New photo added to \"Camera Roll\"","ispublic":1,"isfriend":0,"isfamily":0},{"id":"32121482955","owner":"58983979@N06","secret":"873250ca1d","server":"485","farm":1,"title":"New photo added to \"Camera Roll\"","ispublic":1,"isfriend":0,"isfamily":0},{"id":"32082598956","owner":"58983979@N06","secret":"0eb4f9cd8f","server":"425","farm":1,"title":"New photo added to \"Camera Roll\"","ispublic":1,"isfriend":0,"isfamily":0},{"id":"31279812424","owner":"96079423@N03","secret":"a4c72beabd","server":"591","farm":1,"title":"New photo added to \"Camera Roll\"","ispublic":1,"isfriend":0,"isfamily":0},{"id":"31279811344","owner":"96079423@N03","secret":"e679ffee0a","server":"386","farm":1,"title":"New photo added to \"Camera Roll\"","ispublic":1,"isfriend":0,"isfamily":0},{"id":"32121024535","owner":"96079423@N03","secret":"6a7b01a409","server":"730","farm":1,"title":"New photo added to \"Camera Roll\"","ispublic":1,"isfriend":0,"isfamily":0},{"id":"31972519142","owner":"96079423@N03","secret":"5e543f3729","server":"678","farm":1,"title":"New photo added to \"Camera Roll\"","ispublic":1,"isfriend":0,"isfamily":0},{"id":"32002820861","owner":"96079423@N03","secret":"1b98464ed9","server":"439","farm":1,"title":"New photo added to \"Camera Roll\"","ispublic":1,"isfriend":0,"isfamily":0},{"id":"31310922773","owner":"96079423@N03","secret":"2a465c7eb8","server":"563","farm":1,"title":"New photo added to \"Camera Roll\"","ispublic":1,"isfriend":0,"isfamily":0},{"id":"32121018435","owner":"96079423@N03","secret":"b71f2455f2","server":"640","farm":1,"title":"New photo added to \"\ud0a4\uc988\ub178\ud2b8\"","ispublic":1,"isfriend":0,"isfamily":0},{"id":"31279804004","owner":"96079423@N03","secret":"823cb0c51c","server":"554","farm":1,"title":"New photo added to \"\ud0a4\uc988\ub178\ud2b8\"","ispublic":1,"isfriend":0,"isfamily":0},{"id":"32082118806","owner":"96079423@N03","secret":"59fb5883c8","server":"760","farm":1,"title":"New photo added to \"Camera Roll\"","ispublic":1,"isfriend":0,"isfamily":0},{"id":"32121015375","owner":"96079423@N03","secret":"f0a448aebd","server":"546","farm":1,"title":"New photo added to \"Camera Roll\"","ispublic":1,"isfriend":0,"isfamily":0},{"id":"32002818731","owner":"96079423@N03","secret":"a61e3e85c0","server":"597","farm":1,"title":"New photo added to \"Camera Roll\"","ispublic":1,"isfriend":0,"isfamily":0},{"id":"32082116236","owner":"96079423@N03","secret":"eacbe80cda","server":"752","farm":1,"title":"New photo added to \"Camera Roll\"","ispublic":1,"isfriend":0,"isfamily":0},{"id":"32002817731","owner":"96079423@N03","secret":"2e93cf2db8","server":"484","farm":1,"title":"New photo added to \"\ud0a4\uc988\ub178\ud2b8\"","ispublic":1,"isfriend":0,"isfamily":0},{"id":"31310912253","owner":"96079423@N03","secret":"dbd5993d94","server":"580","farm":1,"title":"New photo added to \"\ud0a4\uc988\ub178\ud2b8\"","ispublic":1,"isfriend":0,"isfamily":0},{"id":"32121008725","owner":"85582130@N00","secret":"f96fbe6f71","server":"519","farm":1,"title":"January 04, 2017 at 01:51PM","ispublic":1,"isfriend":0,"isfamily":0},{"id":"32080997026","owner":"126315664@N07","secret":"cd6b48cfe7","server":"696","farm":1,"title":"!Throw Back Thursday! Really enjoy different styles of Walkr art \ud83d\ude00 and always feel new again! #walkrstyle #tbt","ispublic":1,"isfriend":0,"isfamily":0},{"id":"31278459394","owner":"85582130@N00","secret":"599bd371a3","server":"5584","farm":6,"title":"January 02, 2017 at 01:55PM","ispublic":1,"isfriend":0,"isfamily":0},{"id":"31278457974","owner":"85582130@N00","secret":"d453e1a7f3","server":"727","farm":1,"title":"January 03, 2017 at 01:17PM","ispublic":1,"isfriend":0,"isfamily":0},{"id":"31309279743","owner":"57564162@N08","secret":"93fee4deb1","server":"447","farm":1,"title":"New photo added to \"Camera Roll\"","ispublic":1,"isfriend":0,"isfamily":0},{"id":"31970151102","owner":"70981117@N00","secret":"fdc95ef674","server":"560","farm":1,"title":"New photo added to \"Camera Roll\"","ispublic":1,"isfriend":0,"isfamily":0},{"id":"32000052311","owner":"70981117@N00","secret":"b7fe8f08fb","server":"756","farm":1,"title":"New photo added to \"Camera Roll\"","ispublic":1,"isfriend":0,"isfamily":0},{"id":"31743041910","owner":"70981117@N00","secret":"22f1ee72cb","server":"444","farm":1,"title":"New photo added to \"Camera Roll\"","ispublic":1,"isfriend":0,"isfamily":0},{"id":"31969934322","owner":"70981117@N00","secret":"a1b45bd113","server":"623","farm":1,"title":"New photo added to \"Camera Roll\"","ispublic":1,"isfriend":0,"isfamily":0},{"id":"32000049161","owner":"70981117@N00","secret":"ed71a5465c","server":"296","farm":1,"title":"New photo added to \"Camera Roll\"","ispublic":1,"isfriend":0,"isfamily":0},{"id":"32118363745","owner":"70981117@N00","secret":"e74303bff3","server":"464","farm":1,"title":"New photo added to \"Camera Roll\"","ispublic":1,"isfriend":0,"isfamily":0},{"id":"32079369816","owner":"70981117@N00","secret":"68125d55ed","server":"516","farm":1,"title":"New photo added to \"Camera Roll\"","ispublic":1,"isfriend":0,"isfamily":0},{"id":"31743036560","owner":"70981117@N00","secret":"3c147ac180","server":"5717","farm":6,"title":"New photo added to \"Camera Roll\"","ispublic":1,"isfriend":0,"isfamily":0},{"id":"31743035330","owner":"70981117@N00","secret":"9de04c28e4","server":"380","farm":1,"title":"New photo added to \"Camera Roll\"","ispublic":1,"isfriend":0,"isfamily":0},{"id":"31743034000","owner":"70981117@N00","secret":"f52da08ca6","server":"561","farm":1,"title":"New photo added to \"Camera Roll\"","ispublic":1,"isfriend":0,"isfamily":0},{"id":"31743031800","owner":"70981117@N00","secret":"403e717b8c","server":"738","farm":1,"title":"New photo added to \"Camera Roll\"","ispublic":1,"isfriend":0,"isfamily":0},{"id":"32118346515","owner":"70981117@N00","secret":"27766fc541","server":"364","farm":1,"title":"New photo added to \"Camera Roll\"","ispublic":1,"isfriend":0,"isfamily":0},{"id":"31277110174","owner":"70981117@N00","secret":"8d19d973d6","server":"597","farm":1,"title":"New photo added to \"Camera Roll\"","ispublic":1,"isfriend":0,"isfamily":0},{"id":"32000038361","owner":"70981117@N00","secret":"34b168bde5","server":"5568","farm":6,"title":"New photo added to \"Camera Roll\"","ispublic":1,"isfriend":0,"isfamily":0},{"id":"32079356846","owner":"70981117@N00","secret":"96027ece47","server":"514","farm":1,"title":"New photo added to \"Camera Roll\"","ispublic":1,"isfriend":0,"isfamily":0},{"id":"31277103244","owner":"70981117@N00","secret":"6d370f0b61","server":"298","farm":1,"title":"New photo added to \"Camera Roll\"","ispublic":1,"isfriend":0,"isfamily":0},{"id":"32079348366","owner":"70981117@N00","secret":"376c2a0a77","server":"5575","farm":6,"title":"New photo added to \"Camera Roll\"","ispublic":1,"isfriend":0,"isfamily":0},{"id":"31969914662","owner":"70981117@N00","secret":"90635568bb","server":"729","farm":1,"title":"New photo added to \"Camera Roll\"","ispublic":1,"isfriend":0,"isfamily":0},{"id":"32079340986","owner":"70981117@N00","secret":"c3021c43d3","server":"5681","farm":6,"title":"New photo added to \"Camera Roll\"","ispublic":1,"isfriend":0,"isfamily":0},{"id":"32079339236","owner":"70981117@N00","secret":"8248081a9a","server":"432","farm":1,"title":"New photo added to \"Camera Roll\"","ispublic":1,"isfriend":0,"isfamily":0},{"id":"31277097544","owner":"70981117@N00","secret":"31f42f2073","server":"308","farm":1,"title":"New photo added to \"Camera Roll\"","ispublic":1,"isfriend":0,"isfamily":0},{"id":"32118330315","owner":"70981117@N00","secret":"28d353e0c4","server":"505","farm":1,"title":"New photo added to \"Camera Roll\"","ispublic":1,"isfriend":0,"isfamily":0},{"id":"32000027661","owner":"70981117@N00","secret":"5d106bcb16","server":"421","farm":1,"title":"New photo added to \"Camera Roll\"","ispublic":1,"isfriend":0,"isfamily":0},{"id":"32118327315","owner":"70981117@N00","secret":"c328f40a1e","server":"315","farm":1,"title":"New photo added to \"Camera Roll\"","ispublic":1,"isfriend":0,"isfamily":0},{"id":"31743012830","owner":"70981117@N00","secret":"f75ec62a60","server":"432","farm":1,"title":"New photo added to \"Camera Roll\"","ispublic":1,"isfriend":0,"isfamily":0},{"id":"31743011370","owner":"70981117@N00","secret":"01d506ee38","server":"313","farm":1,"title":"New photo added to \"Camera Roll\"","ispublic":1,"isfriend":0,"isfamily":0},{"id":"31969900392","owner":"70981117@N00","secret":"9a9a622dfc","server":"707","farm":1,"title":"New photo added to \"Camera Roll\"","ispublic":1,"isfriend":0,"isfamily":0},{"id":"31969891542","owner":"70981117@N00","secret":"96f1bfd481","server":"5761","farm":6,"title":"New photo added to \"Camera Roll\"","ispublic":1,"isfriend":0,"isfamily":0},{"id":"31742997000","owner":"70981117@N00","secret":"9b096077ee","server":"5588","farm":6,"title":"New photo added to \"Camera Roll\"","ispublic":1,"isfriend":0,"isfamily":0},{"id":"31277088284","owner":"70981117@N00","secret":"82ef673136","server":"492","farm":1,"title":"New photo added to \"Camera Roll\"","ispublic":1,"isfriend":0,"isfamily":0},{"id":"31308202553","owner":"70981117@N00","secret":"02c9ce2d70","server":"767","farm":1,"title":"New photo added to \"Camera Roll\"","ispublic":1,"isfriend":0,"isfamily":0},{"id":"31308195183","owner":"70981117@N00","secret":"3b653495d8","server":"352","farm":1,"title":"New photo added to \"Camera Roll\"","ispublic":1,"isfriend":0,"isfamily":0},{"id":"32118143725","owner":"101743283@N08","secret":"c10b4a465e","server":"349","farm":1,"title":"Oh, what are you doing ?","ispublic":1,"isfriend":0,"isfamily":0},{"id":"31742195410","owner":"64344173@N03","secret":"3a98e8f4ee","server":"399","farm":1,"title":"New photo added to \"Camera Roll\"","ispublic":1,"isfriend":0,"isfamily":0},{"id":"32117475545","owner":"64344173@N03","secret":"f27234c439","server":"529","farm":1,"title":"New photo added to \"Camera Roll\"","ispublic":1,"isfriend":0,"isfamily":0},{"id":"31742083270","owner":"36748965@N00","secret":"c5334b305a","server":"511","farm":1,"title":"Escalate","ispublic":1,"isfriend":0,"isfamily":0},{"id":"31968944132","owner":"146424059@N03","secret":"7e4cf7d4d7","server":"405","farm":1,"title":"New photo added to \"All Photos\"","ispublic":1,"isfriend":0,"isfamily":0},{"id":"32116771505","owner":"146651280@N04","secret":"740c990f8c","server":"780","farm":1,"title":"There\u2019s another malicious link floating around that will cause any iOS device to freeze & require a hard reset","ispublic":1,"isfriend":0,"isfamily":0},{"id":"32007230321","owner":"96079423@N03","secret":"66b89c0787","server":"310","farm":1,"title":"New photo added to \"Camera Roll\"","ispublic":1,"isfriend":0,"isfamily":0},{"id":"31750601760","owner":"96079423@N03","secret":"cf91688bbd","server":"5523","farm":6,"title":"New photo added to \"Camera Roll\"","ispublic":1,"isfriend":0,"isfamily":0},{"id":"32125760365","owner":"96079423@N03","secret":"d89591db2b","server":"5537","farm":6,"title":"New photo added to \"Camera Roll\"","ispublic":1,"isfriend":0,"isfamily":0},{"id":"31750550220","owner":"96079423@N03","secret":"05dbf734b5","server":"469","farm":1,"title":"New photo added to \"Camera Roll\"","ispublic":1,"isfriend":0,"isfamily":0},{"id":"32086760936","owner":"96079423@N03","secret":"95aaf717bd","server":"454","farm":1,"title":"New photo added to \"Camera Roll\"","ispublic":1,"isfriend":0,"isfamily":0},{"id":"32007202081","owner":"96079423@N03","secret":"b7ed38031e","server":"443","farm":1,"title":"New photo added to \"Camera Roll\"","ispublic":1,"isfriend":0,"isfamily":0},{"id":"31315065683","owner":"22545636@N04","secret":"05bc11d46e","server":"5552","farm":6,"title":"New photo added to \"All Photos\"","ispublic":1,"isfriend":0,"isfamily":0},{"id":"31315062783","owner":"22545636@N04","secret":"e489d05905","server":"620","farm":1,"title":"New photo added to \"All Photos\"","ispublic":1,"isfriend":0,"isfamily":0}]},"stat":"ok"}

